[
    {
        "Charcter": "src/assets/Components/RandomCharcterGif/Movies/Avengersgif.gif"
    },
    {
        "Charcter": "src/assets/Components/RandomCharcterGif/Movies/HighMoon-1.gif"
    },
    {
        "Charcter": "src/assets/Components/RandomCharcterGif/Movies/HighMoon-2.gif"
    },
    {
        "Charcter": "src/assets/Components/RandomCharcterGif/Movies/PulpFiction.gif"
    },
    {
        "Charcter": "src/assets/Components/RandomCharcterGif/Movies/Rambo.gif"
    },
    {
        "Charcter": "src/assets/Components/RandomCharcterGif/Movies/Scarface.gif"
    },
    {
        "Charcter": "src/assets/Components/RandomCharcterGif/Movies/ShaunoftheDead.gif"
    },
    {
        "Charcter": "src/assets/Components/RandomCharcterGif/Movies/Unknown-1.gif"
    },
    {
        "Charcter": "src/assets/Components/RandomCharcterGif/Movies/Unknown-2.gif"
    }
]